%l%E     Ra  Rac Pr Pm icc lmax nr mc  Re  Rm  Ro  Ekin %po %ta lm mmd  Nu  Emag %ex %po %pa %ta lm mmd B  Bsur Bdip pow %jou tmag tvis trun tad Tm  T2 vrat  Filename  
%%%                                           10^-3                                                                  10^7        10^-4           10^-4
%1.e-6 1.1e9 6.14 1 1.0  0  201 81 4  172 172 .17  14800 21 10. 42 26 2.18 273000 11 55  31  10 16 12 .739 .181 .158 46.9 80. 8.23 1.53 .162 28 2541 325 .01  %e001r1r110f !!
%
%%%E     Ra  Rac Pr Pm icc lmax nr mc  Re  Rm  Ro  Ekin %po %ta lm mmd  Nu  Emag %ex %po %pa %ta lm mmd B  Bsur Bdip pow %jou tmag tvis trun tadv Tm   T2 vrat Filename  
%
 3.e-6 5.0e8 10.9 1 0.0  0  168 81 4  327  00 1.0  53600 23 8.8 44 21 2.54      0  0  0   0   0  0  0 0.00 .000 .000 34.5  0.  0.0 1.54 .216 71 2293 315 .11  %e003r50b
 3.e-6 5.0e8  7.7 3 0.0  0  168 81 4  103  00 .26   5280 23 5.5 60 36 2.78      0  0  0   0   0  0  0 0.00 .000 .000 4.59  0.  0.0 1.14 .100 10 2189 298 .05  %e003p3r50a
 3.e-6 1.0e9 21.8 1 0.0  0  201 81 4  867  00 2.6 376000 27 16  37 16 6.21      0  0  0   0   0  0  0 0.00 .000 .000 249.  0.  0.0 1.48 .073 63 2043 190 .21  %e003r100c
 3.e-6 1.8e9 39.2 1 0.0  0  224 97 4 1820  00 5.4 1.65E6 24 30  29 12 12.9      0  0  0   0   0  0  0 0.00 .000 .000 1030  0.  0.0 1.58 .039 70 2143 112 .38  %e003r180d
 3.e-6 2.2e9 47.9 1 .06  0  224 97 4 1326  80 4.0 879000 36 3.8 55 24 17.8 712000 26 77  69 7.5  8 12 .514 .195 .191 1773 41. 1.24 0.83 .040 53 1967  89 .18  %e003r006r220c
 3.e-6 1.8e9 39.2 1 .075 0  224 97 4 1114  84 3.3 621000 34 3.1 56 25 14.9 548000 25 76  68 7.2  8 13 .497 .180 .173 1208 40. 1.41 0.85 .045 50 1985  99 .12  %e003r0075r180f
 3.e-6 8.0e8 17.4 1 .10  0  201 81 4  510  51 1.5 129800 31 3.8 56 31 5.33  96400 29 78  74 11.  6 14 .240 .091 .090 166. 25. 3.00 1.03 .126 64 2050 215 .09  %e003r01r80e
 3.e-6 1.0e9 21.8 1 .10  0  201 81 4  633  63 1.9 200400 33 2.7 59 32 7.57 201000 29 80  74 7.7  6 14 .347 .130 .124 314. 34. 2.46 0.94 .083 53 2031 171 .10  %e003r01r100d
 3.e-6 1.8e9 39.0 1 .10  0  224 97 4 1091 109 3.2 595000 34 3.0 58 27 14.9 576000 26 76  63 5.7 10 13 .588 .212 .195 1208 44. 1.38 0.87 .087 95 1933  93 .12  %e003r01r180c
 3.e-6 2.5e8  5.4 1 .50  0  134 65 4  129  64 .39   8300 20 .90 40 23 1.69  12800 14 59  53 17. 10 15 .196 .053 .051 5.87 32. 7.70 2.06 .253 34 2530 417 .03  %e003r05r25c
 3.e-6 5.0e8 10.8 1 .50  0  168 81 4  257 128 .77  33000 23 7.5 46 27 3.50 193200 11 59  36 9.0 13 10 .761 .184 .150 58.0 62. 5.92 1.50 .254 65 2217 266 .28  %e003r05r50a
 3.e-6 1.0e9 21.6 1 .50  0  201 81 4  495 247 1.5 122500 28 11. 49 28 7.33 654000 11 50  25 21. 17 11 1.40 .331 .288 304. 67. 3.57 1.19 .103 51 1978 141 .32  %e003r05r100fff
 3.e-6 1.8e9 39.0 1 .50  0  224 97 4  787 394 2.4 310000 31 15. 45 25 12.7 1670000 9 48  23 21. 21 11 2.24 .524 .480 1025 74. 2.41 1.12 .065 51 1774  66 .30  %e003r05r180fff 
 3.e-6 7.0e8 10.8 3 1.0  0  168 81 4  139 139 .42   9730 25 5.5 55 34 5.09  63700 10 57  33 12. 15 11 .618 .141 .098 15.4 47. 9.52 1.19 .358 50 2019 219 .18  %e003r033p3r70e
 3.e-6 4.0e8 8.66 1 1.0  0  168 81 4  184 184 .55  16900 23 9.2 35 19 2.95 228000  8 52  23 11. 16 10 1.17 .248 .221 34.6 76. 9.26 2.01 .277 51 2470 283 .22  %e003r1r40b
 3.e-6 5.0e8  7.7 3 1.5  0  168 81 4   89 134 .26   4000 24 6.5 47 29 3.57  58700 11 62  36 7.9 14 11 .727 .179 .145 6.65 60. 16.3 1.49 .563 50 2170 269 .22  %e003r05p3r50c
%
%%%E     Ra  Rac Pr Pm icc lmax nr mc  Re  Rm  Ro  Ekin %po %ta lm mmd  Nu  Emag %ex %po %pa %ta lm mmd B  Bsur Bdip pow %jou tmag tvis trun tadv Tm   T2 vrat Filename  
%
 1.e-5 8.0e7 7.57 1 0.0  0  133 65 2  157  00 1.6  12350 20 9.6 29 16 2.04      0  0  0   0   0  0  0 0.00 .000 .000 3.49  0.  0.0 3.53 0.34 53 2350 344 .15  %e01r80b
 1.e-5 3.5e8 33.1 1 0.0  0  168 81 2  948  00 9.5 449000 26 22  24 10 10.4      0  0  0   0   0  0  0 0.00 .000 .000 159.  0. 0.0 2.81 0.11 110 1981 107 .40  %e01r350a
 1.e-5 5.0e8 47.3 1 0.0  0  168 81 2 1338  00 13. 895000 24 32  22 10 14.0      0  0  0   0   0  0  0 0.00 .000 .000 314.  0.  0.0 2.82 0.07 94 1906  80 .49  %e01r500b
 1.e-5 5.0e8 47.3 1 .10  0  168 81 2  849  85 8.5 360000 36 3.6 36 16 14.4 245000 25 73  63 5.7 7.9 9 .700 .288 .276 325. 39. 2.41 1.83 .061 52 1740  63 .23  %e01r01r500b 
 1.e-5 3.5e8 33.1 1 .15  0  168 81 2  590  89 5.9 176000 35 2.3 39 19 11.3 237000 26 75  63 4.6 7.6 10 .843 .327 .314 175. 45. 3.77 1.83 .12 70    0   0 .01  %e01r015r350a
 1.e-5 1.1e8 10.4 1 .20  0  134 65 2  197  39 2.0  19500 26 5.0 37 22 2.92  14600 25 74  69 11.  5 11 .242 .090 .088 9.87 21. 9.03 2.48 .257 51 2169 265 .11  %e01r02r110a
 1.e-5 1.5e8 14.2 1 .20  0  134 65 2  254  51 2.5  32200 30 4.2 40 25 4.06  45700 27 76  68 8.1  6  9 .428 .153 .146 22.0 33. 7.95 2.17 .203 52 2021 224 .16  %e01r02r150c
 1.e-5 3.5e8 33.1 1 .25  0  168 81 2  537 134 5.4 144000 34 2.3 38 19 10.8 322000 22 70  51 4.0 10  9 1.27 .479 .456 167. 56. 4.22 1.95 0.12 64 1768  78 .19  %e01r025r350b
 1.e-5 5.0e8 47.3 1 .25  0  168 81 2  693 173 6.9 240000 35 2.7 38 18 13.5 437000 21 68  46 3.9 12 10 1.48 .531 .512 303. 58. 3.02 1.86 0.12 83 1664  56 .21  %e01r025r500d
 1.e-5 7.5e7 21. .1 .333 0  134 65 2  906 302 9.1 411000 32 6.8 21 10 3.09 2.07e6  7 50  20 11. 13  6 3.71 .896 .785 715. 83. 3.71 3.32 .088 80 2308 001 .01  %e01r033p01r750b
 1.e-5 1.5e8 14.2 1 .50  0  133 65 2  235 117 2.3  27600 28 4.8 36 19 4.61 109000 16 62  40 6.7 11  9 1.04 .294 .262 25.9 57. 8.56 2.45 0.35 82 2056 184 .24  %e01r05r150a
 1.e-5 3.5e8 33.1 1 .50  0  168 81 2  456 228 4.6 104000 33 5.8 36 18 9.58 387000 13 59  31 7.1 15  9 1.97 .602 .567 147. 66. 4.61 2.05 0.18 82 1734  73 .30  %e01r05r350b
 1.e-5 5.0e7 4.73 1 1.0  0  106 49 2   73  73 0.7   2650 19 5.8 23 13 1.52   4670  8 43  31 24.  9 10 0.31 .057 .054 .828 33. 18.7 4.63 0.82 60 2461 417 .15  %e01r1r50b
 1.e-5 8.0e7 7.57 1 1.0  0  133 65 2  119 119 1.2   7025 23 7.9 25 14 2.47  51200  7 53  26 9.1 12  8 1.01 .219 .189 5.11 65. 16.4 3.92 .91 108 2394 317 .30  %e01r1r80c
 1.e-5 3.5e8 24.5 3 1.5  0  168 81 2  148 222 1.5  10950 31 11. 35 19 9.12 129800 14 57  30 12. 15  9 1.97 .548 .513 15.4 67. 14.4 2.11 .338 50 1743  87 .42  %e01r05p3r350d 
 1.e-5 5.e7  4.73 1 2.0  1   64 41 1   77 154 .77   2980 28 3.0 29 18 1.66   5950  2 42  18  17 16 14 .49  .076 .066 1.23 33. 14.7 3.78 1.00 77    0   0 .01  %Pm=2-5e7 CIC
 1.e-5 7.5e7 7.10 1 2.0  1  128 65 4  105 209 1.0   5470 25  9. 23 16 2.65  83300  3 51  20  11 15 12 1.82 .345 .303 5.39 75. 20.5 4.24 1.20 126   0   0 .01  %Pm=2-n CIC
 1.e-5 1.e8  9.46 1 2.0  1  128 65 4  122 244 1.2   7470 30 16. 23 12 3.55 182800  5 50  21  17 15  8 2.70 .644 .576 11.8 81. 19.2 3.57 1.20 146   0   0 .01  %Pm=2-1e8 CIC
 1.e-5 1.5e8 14.2 1 2.0  1  170 65 4  178 357 1.8  16010 34  9. 26 12 5.41 378000  6 53  22  11 16  8 3.89 .984 .879 31.6 80. 14.9 2.81 0.40 71    0   0 .01  %Pm=2-h CIC
 1.e-5 2.e8  18.9 1 2.0  1  170 81 4  233 467 2.3  27300 35  9. 28 12 6.65 508000  5 53  19  10 18 12 4.51 1.04 .908 54.8 79. 11.8 2.42 0.45 101   0   0 .01  %Pm=2-2e8 CIC
 1.e-5 4.e8  37.8 1 2.0  1  212 81 4  444 888 4.4  98600 35 13. 32 16 10.7 701000  4 51  12  10 29 12 5.28 1.09 .906 178. 70. 5.20 1.85 0.10 44    0   0 .01  %Pm=2-4e8 CIC 
 1.e-5 2.e8  12.9 10 4.  0  134 65 4   35 140 .35    615 27 8.9 38 23 5.65   8100 14 60  36  13 10  9 .805 .215 .183 .449 42. 49.5 2.33 1.43 50 1827   0 .01  %e01r04p10r200b !!
%
%%%E     Ra  Rac Pr Pm icc lmax nr mc  Re  Rm  Ro  Ekin %po %ta lm mmd  Nu  Emag %ex %po %pa %ta lm mmd B  Bsur Bdip pow %jou tmag tvis trun tadv Tm   T2 vrat Filename  
%
 3.e-5 2.0e7 19.1 .1 .0  0  106 49 2 1766  00 53 1560000 18 54. 10  6 3.11      0  0  0   0   0  0  0 0.00 .000 .000 200.  0.  0.0 7.69 .120 211 2060 229 .70 %e03p01r200b
 3.e-5 2.5e7 14.8 .3 .0  0  106 49 2  645  00 19. 208000 21 37. 13  8 3.09      0  0  0   0   0  0  0 0.00 .000 .000 27.6  0.  0.0 7.54 .313 202 2097 222 .53 %e03p03r250a
 3.e-5 2.5e7 8.82 1 0.0  0   85 41 1  139  00 4.2   9720 25 8.9 23 13 2.54      0  0  0   0   0  0  0 0.00 .000 .000 1.81  0.  0.0 5.33 0.47 65  2105 276 .22 %e03r250a
 3.e-5 8.0e7 28.2 1 0.0  0  133 65 1  523  00 16. 137000 27 21  19  9 8.31      0  0  0   0   0  0  0 0.00 .000 .000 28.4  0.  0.0 4.81 0.24 125 1839  95 .47 %e03r800a 
 3.e-5 1.2e8 42.4 1 0.0  0  133 65 1  748  00 22. 280000 26 27  18  9 11.1      0  0  0   0   0  0  0 0.00 .000 .000 59.0  0.  0.0 4.72 0.08 60  1747  72 .55 %e03r1200a
 3.e-5 1.5e8 52.8 1 .10  0  134 65 2  796  80 24. 317000 28 26. 19  9 12.9  16500  2 37  13 21. 12  7 .314 .061 .011 86.7 13. 1.53 4.16 .100 80  1685  56 .55 %e03r01r1500a
 3.e-5 1.5e8 52.8 1 .15  0  134 65 2  732 110 22. 268300 32 15. 22  9 13.0  30000  1 42  14 13. 14  7 .520 .101 .029 87.2 19. 1.85 3.78 .170 124 1674  57 .44 %e03r015r1500a
 3.e-5 7.0e7 24.7 1 .20  0  106 49 1  337  67 10.  56900 35 2.7 27 13 7.48  39100 25 73  62 5.4 6.7 8 .685 .286 .274 22.1 31. 7.15 3.74 .156 53  1785  99 .36 %e03r02r700a
 3.e-5 5.0e7 17.6 1 .25  0  106 49 1  236  59 7.1  27900 33 2.9 28 15 5.63  36600 25 75  64 5.7 5.8 8 .741 .294 .286 11.3 36. 11.2 3.89 0.39 92  1889 132 .28 %e03r025r500a
 3.e-5 8.0e7 28.2 1 .25  0  133 65 1  364  91 11.  66200 35 2.2 26 13 8.30  58400 22 71  54 4.1 8.1 8 .936 .378 .356 28.6 38. 6.56 3.74 0.39 142 1716  76 .31 %e03r025r800b
 3.e-5 1.2e8 42.4 1 .25  0  133 65 1  611 153 18. 187000 32 11  22 10 10.8  25800  2 42 5.3 4.3 17  7 .622 .114 .033 60.5 20. 2.20 3.82 0.25 153 1701  63 .45 %e03r025r1200b
 3.e-5 8.0e7 28.2 1 .50  0  106 49 1  298 149 8.9  44500 33 4.8 26 13 7.32  90000 18 62  37 6.4 11  7 1.64 .536 .508 24.9 54. 7.93 3.84 0.21 60  1695  80 .39  %e03r05r800b
 3.e-5 1.2e8 42.4 1 .50  0  133 65 1  567 284 17. 161000 34 6.3 24 10 11.3  37100  1 44 2.2 1.8 24 10 1.05 .155 .035 60.4 27. 2.29 3.64 0.25 143 1675  61 .40 %e03r05r1200c
 3.e-5 5.55e7 19.6 1 .75 0  106 65 2  204 153 6.1  20850 31 8.4 24 12 5.41  78600 14 57 32. 10. 11  7 1.88 .577 .540 11.9 60. 12.7 4.31 .273 57  1917  01 .01 %e03r075r555a
 3.e-5 2.5e7 8.82 1 1.0  0  106 49 1   97  97 2.9   4720 26 7.4 20 12 2.75  28500 10 56  33 9.5 9.1 7 1.31 .348 .314 2.00 61. 25.4 6.07 1.32 128 2257 253 .51  %e03r1r250b
 3.e-5 2.5e7 14.8 .3 1.  0  106 49 2  279 279 8.4  38800 31 7.9 17  8 3.18 258000  8 50  19  11 12  6 3.93 1.01 .857 28.0 76. 13.1 5.55 .377 105 2209 196 .59 %e03r1p03r250b
 3.e-5 2.0e7 19.1 .1 1.  0  106 49 2  711 711  21 253000 34 7.0 18  7 3.01 718000  4 45  11  10 18  7 6.56 1.39 1.02 188. 69. 5.73 4.15 .151 107 2171 204 .57  %e03r1p01r200b
 3.e-5 8.0e7 28.2 1 1.0  0  106 49 1  270 270 8.1  36400 33 6.4 24 12 7.18 123000 10 54  21 7.4 16  8 2.72 .752 .676 24.2 62. 8.98 3.85 0.46 127 1817  81 .49  %e03r1r800e
%3.e-5 8.0e7 28.2 1 1.0  0  106 49 2  263 263 7.9  34500 33 9.3 24 12 7.08 128600 11 55  24 9.5 15  8 2.78 .781 .708 23.7 64. 9.46 3.82 0.17 45     0   0 .01 %e03r1r800s !2f
 3.e-5 1.2e8 42.4 1 1.0  0  133 65 1  391 391 12.  76400 35 6.9 25 12 9.67 148500  7 53  17 6.9 20  9 2.98 .761 .659 50.8 57. 5.51 3.50 0.51 200 1651  63 .51 %e03r1r1200f4
 3.e-5 1.167e8 31.8 3 1.5 0 134 65 2  130 195 3.9   8490 31 9.4 27 14 9.32  44000 14 57  30 9.3 14  8 1.99 .600 .562 5.27 55. 17.2 3.58 0.42  55 1654  01 .01 %e03r15p3r1167
 3.e-5 1.1e7 3.88 1 2.5  0   85 41 1   43 107 1.3    940 19 5.6 15  7 1.40   1480  3 29  15  30 10  8 .471 .059 .054 .137 25. 44.0 9.08 1.34 55  2322 423 .20 %e03r25r110c
 3.e-5 1.5e7 5.29 1 2.5  0   85 41 1   59 147 1.9   1740 23 9.2 15  9 1.94  14500  4 45  18  12 12  7 1.47 .280 .238 .553 63. 43.4 8.41 0.92 54  2428 354 .55 %e03r25r150b
 3.e-5 3.0e7 10.6 1 2.5  0   85 41 1  101 252 3.0   5100 33 6.6 17  9 3.64  91800  8 51  18 8.6 12  5 3.71 .980 .815 3.71 76. 35.2 5.45 1.42 143 2242 185 .70 %e03r25r300c
 3.e-5 8.0e7 28.2 1 2.5  0  106 49 1  251 627 7.5  31500 36 5.7 24 10 7.32 172500  5 51  11 5.0 21  9 5.09 1.19 .915 24.5 63. 11.7 3.37 0.60 151 1891  92 .55 %e03r25r800c
 3.e-5 1.2e8 42.4 1 2.5  0  133 65 1  370 925 11.  68600 37 5.3 26 11 9.85 194000  4 51 8.1 3.2 29 11 5.39 1.13 .831 51.9 56. 6.95 2.97 0.25  93 1687  56 .47  %e03r25r1200c
 3.e-5 1.8e7 4.91 3 3.0  0   85 41 1   29  86 0.9    412 22 5.1 20 12 2.13   2170  6 50  28  11 10  8 .624 .136 .110 .094 37. 6.56 6.94 2.08  60 2363 316 .30  %e03r3p3r180b
%3.e-5 1.9e7 5.18 3 3.0  0   85 41 1   30  89 0.9    440 23 6.0 20 12 2.27   3310  6 49  26  10 10  8 .772 .168 .134 .115 45. 6.73 6.88 1.25  37    0   0 .01 %e03r3p3r190a
%3.e-5 2.0e7 5.45 3 3.0  0   85 41 1   31  92 0.9    473 25 5.8 20 12 2.40   4320  6 52  28  11 10  8 .882 .197 .163 .139 50. 6.65 6.74 1.15  36    0   0 .01 %e03r3p3r200b
%
%%%E     Ra  Rac Pr Pm icc lmax nr mc  Re  Rm  Ro  Ekin %po %ta lm mmd  Nu  Emag %ex %po %pa %ta lm mmd B  Bsur Bdip pow %jou tmag tvis trun tadv Tm   T2 vrat Filename  
%
 1.e-4 7.5e6 10.8 1 0.0  0   64 41 1  120  00 12.   7220 29 10  17 10 3.03      0  0  0   0   0  0  0 0.00 .000 .000 .745  0.  0.0 9.71 1.25 150 1956 211 .45 %e1r75a
 1.e-4 7.5e6 7.97 10 .0  0   64 41 1  11.8 0  1.2   69.6 30 5.0 21 14 3.26      0  0  0   0   0  0  0 0.00 .000 .000 .0084 0.  0.0 8.29 4.65  55 1880 194 .24 %e1p10r75a
 1.e-4 3.1e7 32.9 10 .0  0  106 49 1 39.2  0  3.9   767  36 3.1 24 14 9.69      0  0  0   0   0  0  0 0.00 .000 .000 .1332 0.  0.0 5.76 1.71  67 1448  54 .23 %e1p10r310a
 1.e-4 1.5e7 21.5 1 0.0  0   64 41 1  247  00 25.  30600 30 15  15  8 5.89      0  0  0   0   0  0  0 0.00 .000 .000 3.61  0.  0.0 8.48 0.33  82 1758 105 .58  %e1r150a
 1.e-4 2.5e7 35.9 1 0.0  0   85 41 1  374  00 37.  70100 30 21  15  7 7.99      0  0  0   0   0  0  0 0.00 .000 .000 8.61  0.  0.0 8.14 0.32 120 1626  71 .61 %e1r250a
 1.e-4 3.5e7 50.3 1 .333 0  106 49 2  480 160 48. 115000 29 27  14  6 9.42    410  1 41 6.4 9.3 17  7 .165 .025 .0032 14.5 1.  2.9 8.04 1.01 485 1577  54 .66 %e1r033r350e
 1.e-4 7.5e6 10.8 1 .50  0   64 41 1  100  50 10.   5020 31 4.6 18 11 3.25   6200 21 69  54 8.1 5.6 6 .787 0.31 .300 .816 32. 28.9 9.01 1.4  140 1988 195 .48 %e1r05r75t
 1.e-4 7.5e6 10.8 1 1.0  0   64 41 1   84  84 8.4   3550 29 7.9 16  8 3.06  12200 16 59  38 10. 7.2 5 1.56 .515 .488 .736 52. 36.9 10.1 0.97  81 2092 199 .54 %e1r1r75t
%1.e-4 7.5e6 10.8 1 1.0  1   85 41 2   88  88 8.8   3910 31  7  16 10 3.39  14100 10 58  36 12   7  6 1.68 .539 .502 .855 53.  31  9.99 2.6  229    0   0 .01 %Pm=1 CIC
 1.e-4 1.5e7 21.5 1 1.0  0   85 41 1  171 171 17.  14700 34 6.3 18  9 5.28  17100 11 56  25 8.5 12  6 1.85 .566 .491 3.19 42. 14.3 7.86 0.68 116 1699 102 .62 %e1r1r150t
 1.e-4 2.5e7 35.9 1 0.5  0   85 41 1  345 172 34.  59400 32 15  16  8 7.99   3850  1 44 3.0 3.3 17  7 0.62 .109 .029 8.68 10. 4.39 7.62 0.27  93 1603  69 .65 %e1r05r250a
 1.e-4 2.5e7 56.7 .3 .6  0  106 49 1 1004 602 100 504000 33 21. 13  5 7.24  36300  1 44 1.5 2.1 28 10 2.09 .228 .055 85.3 25. 1.71 7.76 0.30 301 1653  75 .75  %e1r2p03r250a
 1.e-4 2.5e7 35.9 1 1.0  0  106 49 1  326 326 33.  53200 34 10  16  8 7.99   6400  1 43 1.8 2.0 23  9 1.13 .149 .025 8.50 16. 4.59 7.40 1.01 330 1609  67 .64  %e1r1r250e
%1.e-4 7.5e6 10.8 1 2.0  0   64 41 1   82 165 8.2   3390 31 6.1 15  9 3.29  17200  9 51  21 8.8 11  6 2.56 .736 .624 .808 60. 39.1 10.1 2.45 200    0   0 .01 %e1r2r75t
 1.e-4 7.5e6 10.8 1 2.0  0  106 49 1   83 165 8.3   3420 31 6.2 15  8 3.26  16400  9 52  22 8.8 11  6 2.56 .723 .625 .807 59. 38.5 10.1 2.25 186 2103 174 .60 %e1r2r75tt
 1.e-4 1.5e7 21.5 1 2.0  0   85 41 1  165 330 17.  13600 34 6.0 18  9 5.40  21400  6 51  13 5.7 17  9 2.93 .750 .566 3.25 45. 15.4 7.55 0.77 127 1757  96 .63 %e1r2r150t
%1.e-4 1.5e7 21.5 1 2.0  1  128 65 4  172 343 17.2 14700 34  9  18  8 5.52  17800  4 49  15 11. 18 12 2.66 .612 .463 3.37 41. 12.7 7.32 1.60 275    0   0 .01 %Pm-2-h CIC
 1.e-4 2.0e7 28.7 1 2.0  0  106 49 1  253 507 25.  32100 36 4.6 18  8 7.00   9500  1 44 1.6 1.5 28 11 2.30 .222 .043 5.91 27. 6.79 7.12 0.80 202 1606  76 .59 %e1r2r200c/s! dip/nodip
 1.e-4 2.5e7 35.9 1 2.0  0  106 49 1  298 597 29.  44500 36 5.3 18 12 7.92  12200  1 45 1.3 1.4 30 18 2.30 .257 .048 8.59 26. 5.61 6.88 1.40 410 1557  63 .58 %e1r2r250f
%1.e-4 3.1e6 10.8 .1 1.5 0   85 41 1  337 506 34.  56900 33 6   12  5 2.10 144000  4 42  10  10 13  5 6.57 1.52 1.01 15.4 62. 15.7 9.86 0.45 151 2145 230 .01 %e1r15p01r31a 
 1.e-4 3.2e6 11.1 .1 1.5 0   64 41 1  361 542 36.  65200 33 5  11.7 5 2.14 136500  3 41   9   9 14  5 6.40 1.39 .913 16.6 58. 14.6 9.77 0.67 245 2163 245 .78 %e1r15p01r32b 
 1.e-4 3.1e6 10.8 .1 2.  1   85 41 2  313 625 31.  48900 33 9   11  6 2.00 153000  2 38   9  15 14  6 7.81 1.58 1.04 13.8 63. 17.5 9.87 1.0  313    0   0 .01 %Pr=0.1/Ra=3.1e6 CIC
 1.e-4 5.0e6 17.5 .1 2.  1  127 65 2 691 1382 69. 239000 33 15  12  6 2.80  84100  1 41   2   4 31 12 5.80 .447 .072 44.5 43. 4.36 9.17 1.0  691    0   0 .01 %Pr=0.1/Ra=5.0e6 CIC
 1.e-4 7.5e6 26.2 .1 2.  1  128 65 4 939 1878 94. 441000 35 15  13  6 3.62 143000  1 43   2   4 34 12 7.56 .602 .118 97.8 43. 3.41 7.60 .35  329    0   0 .01 %Pr=0.1/Ra=7.5e6 CIC
 1.e-4 5.0e6 7.18 1 2.5  0   64 41 1   54 135 5.4   1460 29 7.8 12  7 2.41  11700  8 50  24 11.  9  5 2.42 .650 .579 .316 63. 63.4 12.6 1.95 105 2267 001 .01 %e1r25r50a 
 1.e-4 3.1e7 35.9 3 3.0  0  106 49 1  125 376 13.   7840 37 2.5 21 11 9.37   1860  1 45 1.6 1.2 28 13 1.07 .133 .018 1.42 13. 10.2 6.30 3.65 456 1484  51 .33 %e1r1p3r310b ! nondip
 1.e-4 3.1e7 35.9 3 3.0  0  106 49 1   98 294 10.   4790 34 9.7 19 10 8.26  11300  8 54  17 8.0 17  8 2.60 .698 .561 1.24 42. 23.7 6.59 0.53  52 1524  60 .62 %e1r1p3r310s ! dip
 1.e-4 3.3e6 4.74 1 3.0  0   53 33 1   41 123 4.1    836 24 9.2 11  6 1.85   4540  5 42  20 15. 9.3 6 1.65 .362 .320 .112 53. 80.1 15.6 3.16 130 2391 333 .67 %e1r3r33r
 1.e-4 1.5e7 21.5 1 3.0  0  106 49 1  157 472 16.  12400 36 6.1 18  9 5.46  27700  5 50  10 4.7 17  9 4.08 .986 .686 3.29 49. 18.1 7.24 0.48  75 1747  91 .59 %e1r3r150b
 1.e-4 7.5e6 10.8 1 3.33 0   85 41 1   83 276 8.3   3440 34 6.0 15  8 3.47  20950  6 50  15 7.3 13  6 3.74 .988 .735 .886 59. 42.2 9.45 0.81  67 2050 155 .60 %e1r33r75a
 1.e-4 1.5e7 15.9 10 3.33 0  85 41 1  18.9 63 1.9  178.5 30 11. 20 13 5.22   1070 23 65  50 12.6 6  7 .844 .302 .289 .0314 28 149. 7.89 3.00  57 1684 116 .51 %e1r033p10r150a
 1.e-4 1.5e7 21.5 1 5.0  0  106 49 1  151 756 15.  11440 36 6.0 17  8 5.43  33500  4 49 6.9 4.1 22  9 5.79 1.22 .774 3.27 48. 21.9 6.64 0.33  50 1819  97 .60 %e1r5r150a
 1.e-4 3.5e7 37.2 10 5.  0  106 49 2   32 162 3.2    527 33 16. 19 11 8.54   3420 14 58 33. 16. 12  7 1.85 .530 .483 .130 40. 74.9 6.71 1.92  62 1460  01 .01 %e1r5p10r350b  !!
 1.e-4 2.0e7 23.2 3 6.0  0  106 49 1   66 393 6.6   2150 35 8.7 18  9 6.42  12300  6 51  13 6.4 17  8 3.84 .979 .720 .595 50. 44.1 7.12 1.17  77 1733  71 .58 %e1r2p3r200b ! nondip
 1.e-4 2.5e7 29.0 3 6.0  0  106 49 1   79 477 7.9   3160 35 7.9 18  9 7.41  13210  5 51  10 5.3 20  9 3.98 .946 .666 .878 46. 34.0 6.63 0.85  67 1651  64 .57 %e1r2p3r250a ! dip
 1.e-4 1.5e7 21.5 1 10.  0  133 65 1 145 1448 15.  10480 38 7.2 18  8 5.44  41600  2 48 4.6 4.2 27 10 9.12 1.67 .913 3.27 46. 28.5 5.70 0.35  50 1760  91 .57 %e1r10r150c
 1.e-4 7.5e6 7.97 10 10  0   64 41 1  8.6  86 0.9  36.42 30 9.4 15  9 3.10   1270 14 58  36 11.0 8  5 1.59 .500 .464 .0074 54 361. 10.6 17.1 146 2090 205 .55 %e1r1p10r75b
 1.e-4 1.5e7 15.9 10 10  0   85 41 1 15.7 157 1.6   123  32 11. 17 10 5.11   2610 11 56  26 9.9 11  6 2.28 .673 .592 .0303 49. 185 8.35 3.65  57 1840 104 .66 %e1r1p10r150c
 1.e-4 3.1e7 32.9 10 10  0  106 49 1 28.2 282 2.8   398  33 12. 18 10 8.10   4250  7 52  16 9.5 16  7 2.92 .748 .611 .1086 46. 91. 6.80 5.35 151 1585  57 .60 %e1r1p10r310p % nondip
%1.e-4 1.5e7 21.5 1 12.5 0  133 49 2 137 1716 14.   9420 40 9.0 18  7 5.43  56000  2 47 6.0 7.0 25  8 11.8 2.27 1.13 3.27 46. 38.4 5.03 .448  61    0   0 .01 %e1r12r150b
%
%%%E     Ra  Rac Pr Pm icc lmax nr mc  Re  Rm  Ro  Ekin %po %ta lm mmd  Nu  Emag %ex %po %pa %ta lm mmd B  Bsur Bdip pow %jou tmag tvis trun tadv Tm   T2 vrat Filename  
%
 3.e-4 2.1e6 10.4 1 0.0  0   64 41 1   84   0 25.   3530 32 7.8 12  7 3.07      0  0  0   0   0  0  0 0.00 .000 .000 .215  0. 0.0  16.4  2.4 202 1900 177 .67 %e3r63a
 3.e-4 1.25e6 9.10 .3 0. 0   64 41 1  195   0 58.  19000 29 20.  9  5 2.27      0  0  0   0   0  0  0 0.00 0.00 .000 .870  0. 0.0  21.8 1.01 197 1937 223 .72 %e3p03r12a
 3.e-4 1.25e6 6.17 1 1.5 0   42 33 1   41  62 12.    846 28 5.4 11  6 2.18   2240  8 56  38 12  5.7 4 1.42 .460 .421 .068 42. 87.6 21.4 3.13 128 2165 241 .74 %e3r15r12q
 3.e-4 1.0e7 49.4 1 1.5  0   85 41 1  264 396 79.  34900 37 11. 12  5 7.14   1680  1 44 2.0 2.2 23  9 1.23 .160 .047 3.06  9. 6.40 12.5 0.32  83 1487  60 .77 %e3r15r1000a
 3.e-4 8.0e5 3.95 1 2.0  0   42 33 1   27  55 8.1    376 26 4.6  9  6 1.71   1110  9 49  35 18. 5.6 5 1.15 .302 .283 .024 38. 132. 25.1 9.00 243 2270 325 .83 %e3r2r08s
 3.e-4 1.25e6 6.17 1 3.0 0   42 33 1   38 115 12.    741 30 5.7 10  5 2.20   3190  7 46  21 13. 7.9 4 2.40 .682 .549 .068 50. 99.5 21.5 1.64  63 2174 253 .89 %e3r3r12b
 3.e-4 1.25e6 9.10 .3 3. 0   64 41 1  137 411 41.   9400 34 3.7 10  5 2.35  11300  3 40 6.4 7.4 15  6 4.51 1.00 .532 .904 43. 29.7 18.2 0.72  99 1972 203 .81 %e3r3p03r12b
 3.e-4 2.1e6 10.4 1 3.0  0   64 41 1   66 199 20.   2200 34 5.1 12  7 3.11   3850  6 49  14 7.0 12  6 2.63 .757 .507 .218 39. 48.1 16.4 34.6 2200 1873 157 .76 %e3r3r63b
 3.e-4 2.5e6 12.3 1 3.0  0   64 41 1   82 245 25.   3330 35 4.6 13  7 3.51   3040  5 49  11 5.4 14  6 2.34 .616 .390 .313 30. 33.7 15.2 3.94 324 1775 138 .57 %e3r3r75b
 3.e-4 2.7e6 13.3 1 3.0  0   64 41 1   92 277 28.   4260 35 4.4 13  7 3.72   2100  4 48 8.6 4.2 16  7 1.94 .464 .272 .367 22. 26.8 14.9 8.1  750 1775 128 .74 %e3r3r81d 
 3.e-4 3.3e6 16.3 1 3.0  0   64 41 1  117 350 35.   6810 35 4.6 13  7 4.25   1090  1 44 2.5 2.2 21  8 1.40 .200 .061 .539 12. 16.7 14.4 6.6  770 1668 106 .62 %e3r3r99b
 3.e-4 3.3e6 16.3 3 3.0  0   64 41 1   32  97 9.6    523 32 9.8 13  8 3.92   1573 13 57 31. 12.  8  5 1.68 .550 .475 .054 35. 93.7 15.2 3.88 124 1737 121 .70 %e3r3p3r99a
 3.e-4 3.3e6 16.3 3 9.0  0   64 41 1   32 289 9.6    517 35 7.3 13  7 4.14   2180  5 49 11. 6.6 14  6 3.43 .915 .568 .058 38. 104. 14.5 3.28 105 1771  95 .73 %e3r9p3r99a
 3.e-4 6.5e5 3.21 1 3.0  0   42 33 1   22  67 6.6    247 23 4.9  9  5 1.46    325  6 35  22 20. 7.2 5 .765 .164 .150 .012 21. 140. 26.7 11.0 242 2240 353 .75 %e3r3r06r
%3.e-4 3.0e7 25.7 1 3.0  0   85 41 1  162 486 49.  13200 34 5.1 10  4 5.77   3640  1 39 2.1 3.4 21  7 2.55 .298 .094 1.08 23. 14.8 15.8 24.0 3800   0   0 .01 %e3r3r300ca !Flux bounds
 3.e-4 2.7e6 13.3 1 5.0  0   64 41 1   79 396 24.   3140 36 5.9 12  6 3.64   5750  4 47 7.7 5.4 16  7 4.12 .996 .573 .356 38. 43.1 14.4 1.35 108 1834 125 .72 %e3r5r81b 
 3.e-4 3.3e6 16.3 1 5.0  0   85 41 1  106 532 32.   5650 36 3.9 13  7 4.21   2890  1 44 2.6 2.3 23  9 2.94 .437 .149 .531 24. 23.3 14.0 2.44 260 1683 111 .68 %e3r5r99a
 3.e-4 2.5e6 10.5 3 10.  0   64 41 1   25 247 7.4    305 35 7.8 12  7 3.47   2110  7 49 13. 8.0 12  5 3.56 .991 .646 .034 45. 148. 16.2 4.15 103 1872 135 .01 %e3r10p3r25a
%
%%%E     Ra  Rac Pr Pm icc lmax nr mc  Re  Rm  Ro  Ekin %po %ta lm mmd  Nu  Emag %ex %po %pa %ta lm mmd B  Bsur Bdip pow %jou tmag tvis trun tadv Tm   T2 vrat Filename  
%
%1.e-3 2.0e6 35.8 1 2.0  0   85 41 1  138 276 138.  9540 41 3.9  9  4 4.81   21.8  1 44 2.9 2.8 18  7 .295 .049 .017 .387 0.4 14.3 24.7 1.03 142    0   0 .01 %e10r2r200b
%1.e-3 2.0e6 35.8 1 3.0  0   85 41 1  129 387 129.  8300 42 3.4  9  4 4.82    560  1 44 2.0 2.4 20  7 1.83 .260 .027 .391 8.5 17.1 23.2 .358  46    0   0 .01 %e10r3r200b
 1.e-3 3.0e5 5.37 1 4.0  0   53 33 1   28 112 28.    391 33 5.5  8  5 2.02    630  7 43 17. 14.  8  4 2.24 .735 .446 .015 30. 147. 37.2 21.3 596    0   0 .01 %e10r4r30b
 1.e-3 3.0e5 4.76 3 9.0  0   53 33 1  9.1  82 9.1   41.4 34 7.7  7  5 2.04    270  9 47 24. 17. 6.4 3 2.20 .761 .539 .0017 38. 466. 39.3 24.6 224   0   0 .01 %e10r9p3r30b
 1.e-3 6.0e5 9.52 3 9.0  0   53 33 1   17 153 17.   145. 35 9.5  9  5 2.90    308  9 48 14. 10. 10. 4 2.35 .709 .418 .0065 24. 207. 29.5 12.9 219   0   0 .01 %e10r9p3r60b
%1.e-3 8.0e5 14.3 1 4.0  0   64 41 1   71 284 71.   2500 36 6.7  9  5 3.32    254  1 38 3.7 7.5 15  4 1.43 .258 .022 .096 7.2 37.8 28.1 4.17 296    0   0 .01 %e10r4r80t
%
%%%E     Ra  Rac Pr Pm icc lmax nr mc  Re  Rm  Ro  Ekin %po %ta lm mmd  Nu  Emag %ex %po %pa %ta lm mmd B  Bsur Bdip pow %jou tmag tvis trun tadv Tm   T2 vrat Filename  
%%
%%   E:  Ekman number (without factor 2)       Ra: Rayleigh number                   Ra/Rac: Rayleigh # over critical value             Pr: Prandtl number
%%   Pm: magnetic Prandtl number               lmax: max. harmonic degree & order    nr: # of radial grid points                        mc: azimuthal symmetry
%%   Re: Reynolds number                       Rm: magnetic Reynolds number          Ro: Rossby number x 10^3                           Ekin: kinetic energy density
%%   Emag: magnetic energy density (intern.)   %po: percentage poloidal energy       %ta:  percentage toroidal axisym. energy           %pa: perc. poloidal axisym. energy
%%   lm: mean harm. degree in energy           mmd: median m (excl. m=0)             B: rms magnetic field in shell                     Bsur: rms surface field in l=1-12
%%   Bdip: dipole field at surface             tmag: magnetic dissip. time x 10^4    tvisc: viscous dissip. time x 10^4                 trun: simulation tun time 
%%   tadv: run time in advection times         %ex: perc. external mag. energy       pow: power generation x 10^-6                      %jou: percentage Joule dissipation
%%   Tm: mean temprature in shell              T2: 2nd moment of T(r)                vrat: ratio v_ekman (l<13) / vrms
%%   Fundamental length scale is shell thickness, time scale is viscous diffusion time, magnetic field scale is "Elsasser scale".
%%   One advection time unit is shell thickness over rms-velocity.
%%
%%   All cases are with rigid isothermal boundaries, except where marked for fixed flux boundary (FF).
%%
%%   Failed dynamos (not complete):  
%%                     E=3.e-6  Ra=1.8e9  Ra/Rac=39.0  Pr=1    Pm=0.05     Rm=75       Nu=13.3
%%                     E=3.e-6  Ra=2.2e9  Ra/Rac=48.0  Pr=1    Pm=0.05     Rm=80       Nu=17.0
%%                     E=3.e-6  Ra=6.0e8  Ra/Rac=13.0  Pr=1    Pm=0.10     Rm=39       Nu=3.05
%%                     E=3.e-6  Ra=1.5e8  Ra/Rac=3.2   Pr=1    Pm=0.50     Rm=35       Nu=1.28
%%                     E=3.e-6  Ra=2.0e8  Ra/Rac=4.3   Pr=1    Pm=0.50     Rm=50       Nu=1.44
%%                     E=1.e-5  Ra=3.0e7  Ra/Rac=2.84  Pr=1    Pm=2.00     Rm=86       Nu=1.26
%%                     E=1.e-5  Ra=3.0e7  Ra/Rac=2.84  Pr=1    Pm=1.00     Rm=43       Nu=1.26
%%                     E=1.e-5  Ra=3.5e8  Ra/Rac=33.1  Pr=1    Pm=0.10     Rm=95       Nu=10.4
%%                     E=3.e-5  Ra=8.0e7  Ra/Rac=28.2  Pr=1    Pm=0.15     Rm=74       Nu=8.3
%%                     E=3.e-5  Ra=3.0e7  Ra/Rac=10.6  Pr=1    Pm=0.25     Rm=41       Nu=2.93
%%                     E=3.e-5  Ra=1.2e7  Ra/Rac=4.24  Pr=1    Pm=1.00     Rm=43       Nu=1.47
%%                     E=1.e-4  Ra=2.5e7  Ra/Rac=36.0  Pr=1.0  Pm=0.333    Rm=125      Nu=8.0  
%%                     E=1.e-4  Ra=3.5e7  Ra/Rac=50.4  Pr=1.0  Pm=0.333    Rm=160      Nu=9.4  
%%                     E=1.e-4  Ra=1.5e7  Ra/Rac=34.0  Pr=0.3  Pm=0.30
%%                     E=1.e-4  Ra=3.1e7  Ra/Rac=70.3  Pr=0.3  Pm=0.30
